0.000000000000000000e+00,0.000000000000000000e+00
0.000000000000000000e+00,0.000000000000000000e+00
0.000000000000000000e+00,0.000000000000000000e+00
0.000000000000000000e+00,0.000000000000000000e+00
0.000000000000000000e+00,0.000000000000000000e+00
0.000000000000000000e+00,0.000000000000000000e+00
0.000000000000000000e+00,0.000000000000000000e+00
0.000000000000000000e+00,0.000000000000000000e+00
0.000000000000000000e+00,0.000000000000000000e+00
0.000000000000000000e+00,0.000000000000000000e+00
0.000000000000000000e+00,0.000000000000000000e+00
0.000000000000000000e+00,0.000000000000000000e+00
0.000000000000000000e+00,0.000000000000000000e+00
0.000000000000000000e+00,0.000000000000000000e+00
1.600000000000000033e-07,2.559744000000000544e-10
0.000000000000000000e+00,0.000000000000000000e+00
1.080000000000000036e-06,1.646833599999999482e-09
3.759999999999999999e-06,8.689862399999999541e-09
2.675999999999999451e-05,2.651879023999999477e-07
2.583999999999999654e-05,2.541162944000001969e-07
0.000000000000000000e+00,0.000000000000000000e+00
0.000000000000000000e+00,0.000000000000000000e+00
4.879999999999999864e-06,1.444018559999999358e-08
3.388000000000000088e-05,2.207561456000000678e-07
1.951999999999999946e-05,9.865896959999996074e-08
1.058799999999999959e-04,1.795653425600000604e-06
1.718799999999999874e-04,4.146121265600001242e-06
1.151199999999999956e-04,1.562011385599999961e-06
1.202799999999999936e-04,1.576588721599999524e-06
1.011200000000000076e-04,1.658350745600000684e-06
4.925199999999999804e-04,9.774912049599999368e-06
1.053719999999999960e-03,2.259583416159999947e-05
5.272799999999999796e-04,1.756952780159999963e-05
2.876639999999999753e-03,8.574305431040000407e-05
1.722799999999999809e-03,7.046120816000002170e-05
7.761080000000000062e-03,2.282753492335999981e-04
5.921280000000000120e-03,2.882767791615999478e-04
4.913143999999999845e-02,3.634545315263999678e-04
5.761375999999999997e-02,3.618659546624000277e-04
6.968807999999999947e-02,3.302861619136000424e-04
7.851911999999999781e-02,3.368167544255999896e-04
8.787640000000000728e-02,3.307578430400000507e-04
9.218795999999999935e-02,2.848114710384000111e-04
9.776416000000000273e-02,3.279976914943999997e-04
1.054394399999999954e-01,2.616407804863999514e-04
1.121566800000000086e-01,2.725421233776000409e-04
1.169971199999999961e-01,2.606567917056000104e-04
1.220590800000000004e-01,2.477615815535999695e-04
1.271160799999999924e-01,2.535672614335999814e-04
1.316641199999999956e-01,2.430348806256000204e-04
1.350407600000000097e-01,2.457593626224000060e-04
1.399550800000000095e-01,2.361860941935999870e-04
1.438347199999999992e-01,2.344227625216000334e-04
1.464513600000000304e-01,2.442941301503999949e-04
1.517541599999999991e-01,2.168502186944000043e-04
1.570230400000000026e-01,2.307319171584000050e-04
1.588673200000000063e-01,2.047526040175999822e-04
1.630741999999999747e-01,2.064317103600000190e-04
1.655128000000000155e-01,2.078047161599999733e-04
1.686880400000000113e-01,2.229849849584000158e-04
1.723347200000000246e-01,2.054465865216000030e-04
1.751650399999999941e-01,2.072646657984000005e-04
1.789598000000000022e-01,1.942349599599999975e-04
1.812922000000000144e-01,2.033136911599999700e-04
1.858518799999999971e-01,2.094786524655999971e-04
1.878228000000000120e-01,2.032202801600000396e-04
1.900338799999999884e-01,1.956114121456000051e-04
1.928961999999999899e-01,1.936380255600000174e-04
1.952869999999999884e-01,1.929825270000000252e-04
1.986071600000000048e-01,2.088829247343999991e-04
1.998088799999999943e-01,2.004593771456000145e-04
2.024665599999999899e-01,1.996707057663999840e-04
2.056127600000000333e-01,1.852703491824000015e-04
2.072064400000000195e-01,2.007456385264000246e-04
2.090481999999999896e-01,1.931068287600000162e-04
2.122839199999999871e-01,1.972487974335999938e-04
2.138298000000000143e-01,1.890809999599999747e-04
2.165465599999999990e-01,1.949544241664000058e-04
2.187601999999999880e-01,1.912540799599999882e-04
2.202295200000000119e-01,1.896787445695999948e-04
2.217467599999999872e-01,1.891303815024000107e-04
2.243962799999999758e-01,1.824793621616000111e-04
2.257279199999999986e-01,1.829221964735999978e-04
2.280846799999999841e-01,1.881017732975999793e-04
2.304028800000000043e-01,1.831910317055999798e-04
2.318633200000000116e-01,1.736468705776000106e-04
2.333122400000000318e-01,1.765838821824000063e-04
2.354061199999999965e-01,1.850819785455999904e-04
2.365842799999999801e-01,1.783019928816000023e-04
2.388294800000000107e-01,1.805524589295999993e-04
2.404455200000000237e-01,1.755795919295999883e-04
2.423093199999999670e-01,1.709477611375999839e-04
2.439935199999999915e-01,1.713095260095999950e-04
2.453064400000000145e-01,1.814878545264000042e-04
2.469126400000000165e-01,1.752788642304000104e-04
2.490593600000000074e-01,1.679884763903999930e-04
2.511566000000000076e-01,1.734520844399999875e-04
2.516789599999999516e-01,1.732284853183999854e-04
2.534344399999999831e-01,1.737615978864000081e-04
2.548345199999999533e-01,1.711876243695999937e-04
