0.000000000000000000e+00,0.000000000000000000e+00
0.000000000000000000e+00,0.000000000000000000e+00
0.000000000000000000e+00,0.000000000000000000e+00
0.000000000000000000e+00,0.000000000000000000e+00
0.000000000000000000e+00,0.000000000000000000e+00
0.000000000000000000e+00,0.000000000000000000e+00
0.000000000000000000e+00,0.000000000000000000e+00
0.000000000000000000e+00,0.000000000000000000e+00
0.000000000000000000e+00,0.000000000000000000e+00
0.000000000000000000e+00,0.000000000000000000e+00
0.000000000000000000e+00,0.000000000000000000e+00
0.000000000000000000e+00,0.000000000000000000e+00
2.691999999999999976e-05,1.437073136000000249e-07
2.520000000000000013e-06,5.993649599999996437e-09
0.000000000000000000e+00,0.000000000000000000e+00
2.520000000000000013e-06,6.793649599999997811e-09
0.000000000000000000e+00,0.000000000000000000e+00
0.000000000000000000e+00,0.000000000000000000e+00
1.732000000000000019e-05,7.514001760000002862e-08
3.479999999999999715e-06,1.558788959999998832e-08
4.335999999999999821e-05,3.012239104000001282e-07
0.000000000000000000e+00,0.000000000000000000e+00
0.000000000000000000e+00,0.000000000000000000e+00
2.843999999999999876e-05,2.278151663999998997e-07
4.632000000000000375e-05,5.636144575999999410e-07
1.075199999999999870e-04,1.470007449599999947e-06
3.460000000000000076e-05,1.918428400000000344e-07
1.092799999999999973e-04,1.904313881600000215e-06
4.268000000000000743e-04,1.476100975999999962e-05
3.137199999999999711e-04,3.928667761599999618e-06
1.018400000000000007e-04,1.401980614399999942e-06
5.945199999999999660e-04,1.639612996960000023e-05
1.644799999999999973e-04,1.746706329599999944e-06
7.454799999999999708e-04,1.253809956960000076e-05
4.050680000000000947e-03,1.270881355376000238e-04
6.410800000000000352e-03,2.744051633599999787e-04
1.022300000000000118e-02,4.472461269999999196e-04
1.350320000000000166e-02,5.769666297600000533e-04
6.661316000000000459e-02,3.749548348143999965e-04
6.852924000000000515e-02,3.953379690223999729e-04
7.558360000000000078e-02,3.939033470400000081e-04
8.369928000000000090e-02,4.040733754816000414e-04
9.206483999999999501e-02,2.907333797743999666e-04
9.907164000000000248e-02,2.886325957103999919e-04
1.051834400000000169e-01,2.925214857663999916e-04
1.120579599999999981e-01,2.795299366383999641e-04
1.184008800000000000e-01,2.810550072255999453e-04
1.220013999999999960e-01,2.192763340399999988e-04
1.267399200000000337e-01,2.384778303936000332e-04
1.314284000000000008e-01,2.502751614400000385e-04
1.371577199999999830e-01,2.316077324016000273e-04
1.403174000000000088e-01,2.500442332399999525e-04
1.436189999999999967e-01,2.381307590000000015e-04
1.484789999999999999e-01,2.349128470000000205e-04
1.509421600000000196e-01,2.281243665344000128e-04
1.566846399999999861e-01,2.216561320703999791e-04
1.596717599999999959e-01,2.090558105023999870e-04
1.631862400000000102e-01,2.281176986623999724e-04
1.670452799999999904e-01,2.163307497215999982e-04
1.694668800000000142e-01,2.206897350655999824e-04
1.732009599999999871e-01,1.970878710783999818e-04
1.758410800000000107e-01,2.140076244335999871e-04
1.792285599999999812e-01,2.015172003263999880e-04
1.811751599999999740e-01,2.143422149744000048e-04
1.842863199999999757e-01,2.000063408576000076e-04
1.880629600000000012e-01,1.947025640384000182e-04
1.911809600000000109e-01,1.987357334783999927e-04
1.924977199999999833e-01,2.045085788016000198e-04
1.954710400000000126e-01,1.965057693184000306e-04
1.974571199999999860e-01,1.925506253056000151e-04
2.010144000000000097e-01,1.976625126399999817e-04
2.021958399999999878e-01,2.023888146944000099e-04
2.041281599999999752e-01,2.034378790144000294e-04
2.072751999999999928e-01,2.045843289600000057e-04
2.095186400000000060e-01,1.835998445503999937e-04
2.116545599999999916e-01,1.876347512064000086e-04
2.143448400000000087e-01,1.829630213744000151e-04
2.156923599999999996e-01,1.873630696304000125e-04
2.178798000000000123e-01,1.887742399600000095e-04
2.209587600000000318e-01,1.871212112623999889e-04
2.221848399999999946e-01,1.776321541743999951e-04
2.238775199999999965e-01,1.796885826495999859e-04
2.260020399999999874e-01,1.820694198384000017e-04
2.283325600000000177e-01,1.843659158463999939e-04
2.300106799999999951e-01,1.924976299375999911e-04
2.315521999999999858e-01,1.834738591600000037e-04
2.338485600000000109e-01,1.832477219263999968e-04
2.356506000000000434e-01,1.820551836399999937e-04
2.366449999999999942e-01,1.866301989999999845e-04
2.389214799999999639e-01,1.770128106095999977e-04
2.408351200000000136e-01,1.708814865855999977e-04
2.424930799999999997e-01,1.792624241135999988e-04
2.437594000000000150e-01,1.808233756399999946e-04
2.455006799999999989e-01,1.717137675376000062e-04
2.469309599999999494e-01,1.786162574783999957e-04
2.490061199999999975e-01,1.764525705456000064e-04
2.507830400000000126e-01,1.796104003584000203e-04
2.519616799999999657e-01,1.781365475776000064e-04
2.528694000000000219e-01,1.765825596400000025e-04
2.548804399999999859e-01,1.681400094064000020e-04
